3,the question 3?,"y,yes, yeah, aha, why not","no, not sure"
4,question 4?    ,not sure                   ,"answer1, answer2"
1,question 1?    ,no                         ,"yes, yeah"
5,"question 5?"  ,definitely not             ,"probably yes"
2,"question 2?"  ,yes                        ,"maybe yes, maybe no"